{
  "images" : [
    {
      "filename" : "logo-960445cdb21d96dcf1e54b27e18474f1.png",
      "idiom" : "universal",
      "scale" : "1x"
    },
    {
      "filename" : "logo-960445cdb21d96dcf1e54b27e18474f1-1.png",
      "idiom" : "universal",
      "scale" : "2x"
    },
    {
      "filename" : "logo-960445cdb21d96dcf1e54b27e18474f1-2.png",
      "idiom" : "universal",
      "scale" : "3x"
    }
  ],
  "info" : {
    "author" : "xcode",
    "version" : 1
  }
}
